<svg xmlns="http://www.w3.org/2000/svg" width="23.687" height="26.125" viewBox="0 0 23.687 26.125">
  <metadata><?xpacket begin="﻿" id="W5M0MpCehiHzreSzNTczkc9d"?>
<x:xmpmeta xmlns:x="adobe:ns:meta/" x:xmptk="Adobe XMP Core 5.6-c138 79.159824, 2016/09/14-01:09:01        ">
   <rdf:RDF xmlns:rdf="http://www.w3.org/1999/02/22-rdf-syntax-ns#">
      <rdf:Description rdf:about=""/>
   </rdf:RDF>
</x:xmpmeta>
                                                                                                    
                                                                                                    
                                                                                                    
                                                                                                    
                                                                                                    
                                                                                                    
                                                                                                    
                                                                                                    
                                                                                                    
                                                                                                    
                                                                                                    
                                                                                                    
                                                                                                    
                                                                                                    
                                                                                                    
                                                                                                    
                                                                                                    
                                                                                                    
                                                                                                    
                                                                                                    
                           
<?xpacket end="w"?></metadata>
<defs>
    <style>
      .cls-1 {
        fill: #006db8;
        fill-rule: evenodd;
      }
    </style>
  </defs>
  <path class="cls-1" d="M713.383,599.392l-0.773-10.7a6.018,6.018,0,0,0-6.094-5.432h-9.96a6.018,6.018,0,0,0-6.094,5.432l-0.774,10.7a5.7,5.7,0,0,0,1.628,4.385,6.2,6.2,0,0,0,3.125,1.7,1.556,1.556,0,0,0-.032.154v1.785a2.038,2.038,0,0,0,4.072,0v-1.785h6.108v1.785a2.039,2.039,0,0,0,4.073,0v-1.785c0-.055-0.028-0.1-0.032-0.154a6.185,6.185,0,0,0,3.125-1.7A5.7,5.7,0,0,0,713.383,599.392Zm-18.623,3.565a1.8,1.8,0,1,1,1.876-1.795A1.84,1.84,0,0,1,694.76,602.957Zm2.233-5.924a3.121,3.121,0,0,1-2.278-.976,2.841,2.841,0,0,1-.756-2.275l0.437-3.658a3.007,3.007,0,0,1,3.034-2.587h8.212a3.006,3.006,0,0,1,3.034,2.587l0.437,3.658a2.838,2.838,0,0,1-.755,2.275,3.122,3.122,0,0,1-2.28.976h-9.085Zm11.319,5.924a1.8,1.8,0,1,1,1.877-1.795A1.839,1.839,0,0,1,708.312,602.957Z" transform="translate(-689.688 -583.25)"/>
</svg>
