<?xml version="1.0" encoding="utf-8"?>
<!-- Generator: Adobe Illustrator 19.2.1, SVG Export Plug-In . SVG Version: 6.00 Build 0)  -->
<svg version="1.1" id="Layer_1" xmlns="http://www.w3.org/2000/svg" xmlns:xlink="http://www.w3.org/1999/xlink" x="0px" y="0px"
	 width="130px" height="100px" viewBox="0 0 130 100" style="enable-background:new 0 0 130 100;" xml:space="preserve">
<style type="text/css">
	.st0{clip-path:url(#SVGID_2_);fill:none;stroke:#89898B;stroke-width:2;stroke-miterlimit:10;}
	.st1{clip-path:url(#SVGID_2_);fill:none;stroke:#2C2F34;stroke-width:2;stroke-miterlimit:10;}
	
		.st2{clip-path:url(#SVGID_2_);fill:none;stroke:#2C2F34;stroke-width:2;stroke-linecap:round;stroke-linejoin:round;stroke-miterlimit:10;}
	
		.st3{clip-path:url(#SVGID_2_);fill:none;stroke:#EC1B52;stroke-width:2;stroke-linecap:round;stroke-linejoin:round;stroke-miterlimit:10;}
</style>
<g>
	<g>
		<defs>
			<rect id="SVGID_1_" x="10.6" y="14.5" width="108.7" height="71"/>
		</defs>
		<clipPath id="SVGID_2_">
			<use xlink:href="#SVGID_1_"  style="overflow:visible;"/>
		</clipPath>
		<circle class="st0" cx="31" cy="28.8" r="4.8"/>
		<circle class="st0" cx="99" cy="28.8" r="4.8"/>
		<path class="st0" d="M46.8,70.1l-9.2-17c-0.1-0.1-0.1-0.3-0.1-0.5v-8.3c0-0.3,0.2-0.6,0.4-0.8c4-2.7,7.3-6.3,9.9-10.4
			c-1-1.1-2-2.2-2.8-3.4c-2.6,2.9-5.9,5-9.6,6.2c-0.1,0-0.1,0.1-0.2,0.1c-0.4,0.3-2.3,1.5-3.7,2.1c-0.3,0.1-0.6,0.1-0.9,0
			c-1.3-0.6-3.2-1.9-3.7-2.1c-0.1,0-0.1-0.1-0.2-0.1c-4.2-1.3-7.8-3.9-10.5-7.3l-1.7-2.2c-0.2-0.3-0.7-0.4-1-0.2l-1.5,1
			c-0.3,0.2-0.4,0.6-0.3,0.9l0.2,0.5c2.7,5.8,6.5,11.4,12.1,14.6c0.3,0.2,0.5,0.5,0.5,0.9v8.3c0,0.2,0,0.3-0.1,0.5l-12,22.1
			c-0.4,0.7,0.1,1.5,0.9,1.5H17c0.3,0,0.6-0.2,0.8-0.4l11.5-16.2c0.8-1.1,2.5-1.1,3.3,0l11.2,15.6L46.8,70.1z"/>
		<path class="st0" d="M105.5,52.6v-8.3c0-0.3,0.2-0.6,0.4-0.8c5.1-3.5,9.1-8.2,11.7-13.8l0.7-1.4c0.2-0.3,0-0.7-0.3-0.9l-1.5-1
			c-0.3-0.2-0.8-0.2-1,0.2l-1.5,1.9c-2.7,3.5-6.3,6.4-10.6,7.5c-0.1,0-0.2,0.1-0.3,0.1c-0.4,0.3-2.3,1.5-3.7,2.1
			c-0.3,0.1-0.6,0.1-0.9,0c-1.4-0.7-3.3-1.9-3.7-2.2c-0.1,0-0.1-0.1-0.2-0.1c-3.7-1.2-7-3.3-9.6-6.2c-0.9,1.2-1.8,2.3-2.8,3.4
			c2.5,4.1,5.9,7.6,9.9,10.4c0.3,0.2,0.4,0.5,0.4,0.8v8.3c0,0.2,0,0.3-0.1,0.5l-9.2,17l3,5.6l11.2-15.6c0.8-1.1,2.5-1.1,3.3,0
			l11.5,16.2c0.2,0.3,0.5,0.4,0.8,0.4h3.7c0.8,0,1.2-0.8,0.9-1.5l-12-22.1C105.5,53,105.5,52.8,105.5,52.6z"/>
		<circle class="st1" cx="65" cy="21.9" r="6.4"/>
		<path class="st2" d="M83.5,84.5h5.7c0.8,0,1.2-0.8,0.9-1.5L73.7,52.7V40.6c7-4.7,12.7-11.2,16.3-18.8l0.9-1.9
			c0.2-0.4,0.1-1-0.3-1.3l-2-1.4c-0.4-0.3-1-0.2-1.4,0.2l-2.2,2.9c-3.6,4.6-8.6,8.1-14.2,9.8c0,0-3.7,2.4-5.7,3.2
			c-2-0.8-5.7-3.2-5.7-3.2c-5.6-1.8-10.6-5.2-14.2-9.8l-2.2-2.9c-0.3-0.4-0.9-0.5-1.3-0.2l-2,1.4c-0.4,0.3-0.6,0.8-0.3,1.3l0.9,1.9
			c3.6,7.6,9.2,14.2,16.3,18.8v12.1L39.9,83c-0.4,0.7,0.1,1.5,0.9,1.5h5.7c0.3,0,0.6-0.2,0.8-0.4l16.1-22.6c0.8-1.1,2.5-1.1,3.3,0
			l16.1,22.6C82.9,84.4,83.2,84.5,83.5,84.5z"/>
		<path class="st3" d="M70.6,30.1c-1.7,1.3-3.6,2.4-5.6,3.2c-2-0.8-3.9-1.9-5.6-3.2c0.2,4.1-0.8,7.9-3,10.5v12.2h6.1H65h3.4h5.3
			V40.5C71.5,37.9,70.4,34.2,70.6,30.1z"/>
	</g>
</g>
</svg>
