<svg xmlns="http://www.w3.org/2000/svg" width="44" height="44" viewBox="0 0 44 44">
  <defs>
    <style>
      .cls-1 {
        fill: #f2f2f2;
        fill-rule: evenodd;
      }
    </style>
  </defs>
  <path class="cls-1" d="M1370.88,1411.6h15.89a3.25,3.25,0,0,0,0-6.5h-15.89v-15.87a3.25,3.25,0,0,0-6.5,0v15.87h-15.15a3.25,3.25,0,0,0,0,6.5h15.15v15.17a3.25,3.25,0,0,0,6.5,0V1411.6Z" transform="translate(-1346 -1386)"/>
</svg>
